{
    "name": "project-dev",
    "dockerComposeFile": [
        "docker-compose.yml"
    ],
    "service": "vscode",
    "runServices": [
        "vscode",
    ],
    "shutdownAction": "stopCompose",
    "postCreateCommand": "go mod download",
    "workspaceFolder": "/workspace",
    // "overrideCommand": "",
    "extensions": [
        "mohsen1.prettify-json",
        "bajdzis.vscode-database",
        "redhat.vscode-yaml",
        "golang.go",
        "IBM.output-colorizer",
        "eamodio.gitlens",
        "mhutchie.git-graph",
        "davidanson.vscode-markdownlint",
        "ms-azuretools.vscode-docker",
        "shardulm94.trailing-spaces",
        "Gruntfuggly.todo-tree",
        "bierner.emojisense",
        "stkb.rewrap",
        "jrebocho.vscode-random",
        "alefragnani.Bookmarks",
        "quicktype.quicktype",
        "spikespaz.vscode-smoothtype",
        "vscode-icons-team.vscode-icons",
        "github.vscode-pull-request-github",
        "mongodb.mongodb-vscode"
    ],
    "settings": {
        // General settings
        "files.eol": "\n",
        // Docker
        "remote.extensionKind": {
            "ms-azuretools.vscode-docker": "workspace"
        },
        // Golang general settings
        "go.useLanguageServer": true,
        "go.autocompleteUnimportedPackages": true,
        "go.gotoSymbol.includeImports": true,
        "go.gotoSymbol.includeGoroot": true,
        "gopls": {
            "completeUnimported": true,
            "deepCompletion": true,
            "usePlaceholders": false
        },
        "go.lintTool": "golangci-lint",
        "go.lintFlags": [
            "--fast",
            "--enable",
            "asciicheck",
            "--enable",
            "bodyclose",
            "--enable",
            "deadcode",
            "--enable",
            "dogsled",
            "--enable",
            "dupl",
            "--enable",
            "errcheck",
            "--enable",
            "exhaustive",
            "--enable",
            "exportloopref",
            "--enable",
            "gci",
            "--enable",
            "gochecknoglobals",
            "--enable",
            "gochecknoinits",
            "--enable",
            "gocognit",
            "--enable",
            "goconst",
            "--enable",
            "gocritic",
            "--enable",
            "gocyclo",
            "--enable",
            "godot",
            "--enable",
            "goerr113",
            "--enable",
            "goheader",
            "--enable",
            "goimports",
            "--enable",
            "golint",
            "--enable",
            "gomnd",
            "--enable",
            "goprintffuncname",
            "--enable",
            "gosec",
            "--enable",
            "gosimple",
            "--enable",
            "govet",
            "--enable",
            "ineffassign",
            "--enable",
            "interfacer",
            "--enable",
            "lll",
            "--enable",
            "maligned",
            "--enable",
            "misspell",
            "--enable",
            "nakedret",
            "--enable",
            "nestif",
            "--enable",
            "noctx",
            "--enable",
            "nolintlint",
            "--enable",
            "prealloc",
            "--enable",
            "rowserrcheck",
            "--enable",
            "scopelint",
            "--enable",
            "sqlclosecheck",
            "--enable",
            "staticcheck",
            "--enable",
            "structcheck",
            "--enable",
            "typecheck",
            "--enable",
            "unconvert",
            "--enable",
            "unparam",
            "--enable",
            "unused",
            "--enable",
            "varcheck",
            "--enable",
            "whitespace",
        ],
        // Golang on save
        "go.buildOnSave": "workspace",
        "go.lintOnSave": "workspace",
        "go.vetOnSave": "workspace",
        "editor.formatOnSave": true,
        "[go]": {
            "editor.codeActionsOnSave": {
                "source.organizeImports": true
            }
        },
        // Golang testing
        "go.toolsEnvVars": {
            "GOFLAGS": "-tags=integration"
        },
        "gopls.env": {
            "GOFLAGS": "-tags=integration"
        },
        "go.testEnvVars": {},
        "go.testFlags": [
            "-v"
        ],
        "go.testTimeout": "600s"
    }
}